  {
	"Items":
		[
			{
			"UniqueId": "1",
			"Title": "Ban can ho cao cap quan 2",
			"Kind": "Ban",
			"Date": " 7/7/2015 ",
			"Address": "198A Ma Lo, Binh Tan, TPHCM",
			"Price": "100 trieu",
			"Capacity": "100m2",
			"Phone": "099999999",
			"Contact": "anh An",
			"Note": "Mien tiep trung gian"
			},
			{
			"UniqueId": "2",
			"Title": "Thue chung cu cao cap gia re",
			"Kind": "Thue",
			"Date": " 9/7/2015 ",
			"Address": "198A Ma Lo, Binh Tan, TPHCM",
			"Price": "10 trieu",
			"Capacity": "100m2",
			"Phone": "099999999",
			"Contact": "anh An",
			"Note": "Mien tiep trung gian"
			},
			{
			"UniqueId": "3",
			"Title": "Ban can ho cao cap quan Tan Binh",
			"Kind": "Ban",
			"Date": " 17/7/2015 ",
			"Address": "198A Ma Lo, Binh Tan, TPHCM",
			"Price": "100 trieu",
			"Capacity": "100m2",
			"Phone": "099999999",
			"Contact": "anh An",
			"Note": "Mien tiep trung gian"
			},
			{
			"UniqueId": "4",
			"Title": "Ban nha nat quan 10",
			"Kind": "Ban",
			"Date": " 27/7/2015 ",
			"Address": "198A Ma Lo, Binh Tan, TPHCM",
			"Price": "700 trieu",
			"Capacity": "100m2",
			"Phone": "099999999",
			"Contact": "anh An",
			"Note": "Mien tiep trung gian"
			}
		]
	}